<svg id="Layer_1" data-name="Layer 1" xmlns="http://www.w3.org/2000/svg" width="192.98" height="64.472" viewBox="0 0 192.98 64.472">
  <path id="Path_39" data-name="Path 39" d="M55.15,75.3v7.21l5.273-7.624a49.433,49.433,0,0,1-5.273.414Z" transform="translate(-17.675 -24.002)" fill="none"/>
  <path id="Path_40" data-name="Path 40" d="M84.185,55.439l-.217-5.6a26.678,26.678,0,0,1-5.348,3.866Z" transform="translate(-25.197 -15.973)" fill="none"/>
  <path id="Path_41" data-name="Path 41" d="M94,37.4l2.772-1.515L94.734,34.57A16.261,16.261,0,0,1,94,37.4Z" transform="translate(-30.126 -11.079)" fill="none"/>
  <path id="Path_42" data-name="Path 42" d="M10.1,34.57,8.06,35.888,10.826,37.4A16.26,16.26,0,0,1,10.1,34.57Z" transform="translate(-2.583 -11.079)" fill="none"/>
  <path id="Path_43" data-name="Path 43" d="M64,77.985l6.8-5.565c-1.189.374-2.405.68-3.656.985Z" transform="translate(-20.512 -23.21)" fill="none"/>
  <path id="Path_44" data-name="Path 44" d="M32.12,72.43,39,78.036,35.8,73.415C34.546,73.137,33.316,72.817,32.12,72.43Z" transform="translate(-10.294 -23.213)" fill="none"/>
  <path id="Path_45" data-name="Path 45" d="M11.683,52.383l.34-8.983L4.31,39.18C4.779,44.168,7.5,48.727,11.683,52.383Z" transform="translate(-1.381 -12.557)" fill="none"/>
  <path id="Path_46" data-name="Path 46" d="M90.48,43.4l.353,8.983c4.206-3.656,6.883-8.215,7.366-13.2Z" transform="translate(-28.998 -12.557)" fill="none"/>
  <path id="Path_47" data-name="Path 47" d="M19.547,49.84l-.217,5.6L24.9,53.706a26.677,26.677,0,0,1-5.348-3.866Z" transform="translate(-6.195 -15.973)" fill="none"/>
  <path id="Path_48" data-name="Path 48" d="M14.98,63.78l-.02.007h.027Z" transform="translate(-4.795 -20.441)" fill="none"/>
  <path id="Path_49" data-name="Path 49" d="M39.087,67.074l-3.133-2.718L32.8,61.638l-3.934-3.4L20,60.951c.489.319.985.639,1.5.938a37.176,37.176,0,0,0,5.749,2.677,43.244,43.244,0,0,0,11.837,2.507Z" transform="translate(-6.41 -18.666)" fill="none"/>
  <path id="Path_50" data-name="Path 50" d="M10.725,29.53l-.245.319.231-.149C10.718,29.646,10.718,29.584,10.725,29.53Z" transform="translate(-3.359 -9.464)" fill="none"/>
  <path id="Path_51" data-name="Path 51" d="M49.654,67.109l2.48-2.161,3.336-2.9L56.9,60.81a37.835,37.835,0,0,1-14.487,0L44.17,62.3l3.16,2.718Z" transform="translate(-13.592 -19.489)" fill="none"/>
  <path id="Path_52" data-name="Path 52" d="M15.233,19.541a14.127,14.127,0,0,0-.272,1.862c0,.313-.061.618-.061.938a3.223,3.223,0,0,0,.054.754,13.869,13.869,0,0,0,2.4,6.924c.292.428.591.856.924,1.264a23.511,23.511,0,0,0,9.092,6.571c.442.19.883.381,1.359.557A34.926,34.926,0,0,0,40.85,40.524,34.77,34.77,0,0,0,52.973,38.4c.462-.17.9-.36,1.359-.55a23.531,23.531,0,0,0,9.085-6.571c.333-.408.639-.836.924-1.264a13.943,13.943,0,0,0,2.385-6.945c0-.251.054-.5.054-.754s-.048-.625-.068-.938a13.081,13.081,0,0,0-.272-1.862A14.433,14.433,0,0,0,64.2,14.465a17.667,17.667,0,0,0-1.08-1.413,15.543,15.543,0,0,0-1.359-1.413c-4.315-4.152-11.11-6.985-18.883-7.413-.68-.041-1.359-.075-2.039-.075a18.583,18.583,0,0,0-2.039.075c-7.767.428-14.569,3.262-18.911,7.434-.476.455-.917.931-1.359,1.413a17.668,17.668,0,0,0-1.08,1.413,14.562,14.562,0,0,0-2.215,5.056Zm15.432-4.879,10.159,6.027,10.036-6.2,1.359-.836.938-.578.387-.238,1.359-.822.564-.347,1.943.822-.17.584-.116.387-.177.6-.68.428-.082.048-1.359.815-13.25,8.188h0a1.235,1.235,0,0,1-1.359.014h0L29.238,17.088l-.5-1.57Z" transform="translate(-4.775 -1.33)" fill="none"/>
  <path id="Path_53" data-name="Path 53" d="M48.532,82.473V75.3A48.666,48.666,0,0,1,43.3,74.89Z" transform="translate(-13.877 -24.002)" fill="none"/>
  <path id="Path_54" data-name="Path 54" d="M68.28,58.16l-3.364,2.929-3.343,2.9L58.06,67.048a42.809,42.809,0,0,0,13.835-3.309,35.09,35.09,0,0,0,5.28-2.813l-.435-.156Z" transform="translate(-18.608 -18.64)" fill="none"/>
  <path id="Path_55" data-name="Path 55" d="M95.551,29.849,95.3,29.53a1.357,1.357,0,0,1,0,.17Z" transform="translate(-30.543 -9.464)" fill="none"/>
  <path id="Path_56" data-name="Path 56" d="M141.852,35.9H138.38V46.949h3.472c2.929,0,4.43-2.487,4.43-5.49S144.781,35.9,141.852,35.9Z" transform="translate(-44.35 -11.506)" fill="none"/>
  <path id="Path_57" data-name="Path 57" d="M271.592,35.9H268.12V46.949h3.472c2.935,0,4.437-2.487,4.437-5.49S274.528,35.9,271.592,35.9Z" transform="translate(-85.931 -11.506)" fill="none"/>
  <path id="Path_58" data-name="Path 58" d="M161.456,60.827a6.917,6.917,0,1,0,6.618,6.945,6.8,6.8,0,0,0-6.618-6.945Z" transform="translate(-49.433 -19.493)" fill="none"/>
  <path id="Path_59" data-name="Path 59" d="M170.45,43.331h4.627l-2.3-6.571Z" transform="translate(-54.628 -11.781)" fill="none"/>
  <path id="Path_60" data-name="Path 60" d="M224.57,35.66a5.45,5.45,0,0,0-5.3,5.7,5.351,5.351,0,1,0,10.689,0,5.49,5.49,0,0,0-5.388-5.7Z" transform="translate(-70.275 -11.429)" fill="none"/>
  <path id="Path_61" data-name="Path 61" d="M141.5,71.328H136.93v6.408h4.648a3.078,3.078,0,0,0,3.282-3.126,3.207,3.207,0,0,0-3.357-3.282Z" transform="translate(-43.885 -22.859)" fill="none"/>
  <path id="Path_62" data-name="Path 62" d="M143.99,63.9a2.506,2.506,0,0,0-2.766-2.65H136.93v5.484h4.6C143.093,66.734,143.99,65.5,143.99,63.9Z" transform="translate(-43.885 -19.63)" fill="none"/>
  <path id="Path_63" data-name="Path 63" d="M140.5,32.14h-6.34V48.305h6.34c4.621,0,7.318-3.472,7.318-8.052S145.12,32.14,140.5,32.14Zm0,13.59h-3.472V34.695H140.5c2.929,0,4.43,2.535,4.43,5.558s-1.5,5.49-4.43,5.49Z" transform="translate(-42.997 -10.301)" fill="#a9bcbf"/>
  <rect id="Rectangle_26" data-name="Rectangle 26" width="2.861" height="16.165" transform="translate(106.832 21.839)" fill="#a9bcbf"/>
  <path id="Path_64" data-name="Path 64" d="M192.786,32.13l-5.232,11.117L182.295,32.13h-2.487l-1.971,16.057L171.823,32.13h-3.1L162.65,48.3H165.7l1.359-3.968h6.36l1.413,3.968h5.83l1.318-10.872,4.383,9.01h2.344l4.362-9.031,1.291,10.872h2.861L195.253,32.11Zm-24.836,9.71,2.324-6.571,2.3,6.571Z" transform="translate(-52.128 -10.291)" fill="#a9bcbf"/>
  <path id="Path_65" data-name="Path 65" d="M223.091,31.719A8.365,8.365,0,1,0,231.3,40.1a8.27,8.27,0,0,0-8.208-8.378Zm0,14.052a5.426,5.426,0,0,1-5.3-5.674,5.338,5.338,0,1,1,10.661,0,5.436,5.436,0,0,1-5.388,5.674Z" transform="translate(-68.768 -10.165)" fill="#a9bcbf"/>
  <path id="Path_66" data-name="Path 66" d="M251.071,42.931,244.718,32.14h-2.7V48.305h2.861V37.42l6.455,10.886h2.6V32.14h-2.868Z" transform="translate(-77.566 -10.301)" fill="#a9bcbf"/>
  <path id="Path_67" data-name="Path 67" d="M270.24,32.14H263.9V48.305h6.34c4.621,0,7.318-3.472,7.318-8.052S274.84,32.14,270.24,32.14Zm0,13.59h-3.472V34.695h3.472c2.935,0,4.437,2.535,4.437,5.558s-1.5,5.49-4.437,5.49Z" transform="translate(-84.578 -10.301)" fill="#a9bcbf"/>
  <path id="Path_68" data-name="Path 68" d="M134.858,24.495h.985V15.131h3.289V14.2H131.59v.931h3.268Z" transform="translate(-42.174 -4.551)" fill="#a9bcbf"/>
  <path id="Path_69" data-name="Path 69" d="M145.3,19.82h5.66v4.675h.992V14.2h-.992v4.743H145.3V14.2h-.985V24.495h.985Z" transform="translate(-46.25 -4.551)" fill="#a9bcbf"/>
  <path id="Path_70" data-name="Path 70" d="M164.974,23.57h-5.062V19.908h4.274v-.924h-4.274V15.131h4.906V14.2H158.94V24.495h6.034Z" transform="translate(-50.939 -4.551)" fill="#a9bcbf"/>
  <path id="Path_71" data-name="Path 71" d="M142.675,66.669a3.669,3.669,0,0,0,2.134-3.547c0-2.507-1.685-3.982-4.294-3.982H134.65V75.285H141.1a4.41,4.41,0,0,0,4.58-4.458A4.172,4.172,0,0,0,142.675,66.669ZM136.2,60.553h4.294a2.506,2.506,0,0,1,2.766,2.65c0,1.644-.87,2.834-2.46,2.834h-4.6Zm4.648,13.257H136.2V67.423h4.573a3.207,3.207,0,0,1,3.357,3.282,3.078,3.078,0,0,1-3.282,3.126Z" transform="translate(-43.154 -18.954)" fill="#a9bcbf"/>
  <path id="Path_72" data-name="Path 72" d="M160.815,58.689a8.365,8.365,0,1,0,8.154,8.4,8.249,8.249,0,0,0-8.154-8.4Zm0,15.275a6.917,6.917,0,1,1,6.618-6.877,6.727,6.727,0,0,1-6.618,6.877Z" transform="translate(-48.792 -18.809)" fill="#a9bcbf"/>
  <path id="Path_73" data-name="Path 73" d="M189.088,59.11H187.24l-4.084,6.211-4.084-6.211h-1.855l5.022,7.461-5.749,8.7h1.828l4.838-7.441,4.831,7.441h1.855l-5.769-8.7Z" transform="translate(-56.564 -18.944)" fill="#a9bcbf"/>
  <path id="Path_74" data-name="Path 74" d="M61.217,10.831l-.387-.5h0C55.794,4.152,46.6,0,36.061,0S16.308,4.152,11.321,10.328h0l-.374.489-.217.279L0,25.013C0,32.134,3.88,38.6,10.193,43.319h0L36.061,64.472,63.595,42.048h0c5.321-4.593,8.541-10.519,8.541-16.988L61.414,11.09Zm3.792,9.554-.238-.149a1.357,1.357,0,0,0,0-.17ZM13.59,42.286l8.834-2.766,3.934,3.4,3.16,2.718,3.133,2.718a43.244,43.244,0,0,1-11.864-2.507,37.176,37.176,0,0,1-5.749-2.677A12.308,12.308,0,0,1,13.59,42.286Zm-6.2-22.22v.17l-.231.149Zm7.719-9.737c4.342-4.172,11.144-7.006,18.911-7.434.68-.041,1.359-.075,2.039-.075a18.583,18.583,0,0,1,2.039.075c7.774.428,14.569,3.262,18.917,7.434.469.455.911.931,1.359,1.413a17.667,17.667,0,0,1,1.08,1.413A14.433,14.433,0,0,1,61.7,18.211a13.079,13.079,0,0,1,.272,1.862c0,.313.068.618.068.938s-.041.5-.054.754a13.943,13.943,0,0,1-2.405,6.924c-.285.428-.591.856-.924,1.264a23.531,23.531,0,0,1-9.119,6.571c-.448.19-.89.381-1.359.55a34.77,34.77,0,0,1-12.122,2.12,34.927,34.927,0,0,1-12.122-2.113c-.462-.177-.9-.367-1.359-.557a23.511,23.511,0,0,1-9.092-6.571c-.333-.408-.632-.836-.924-1.264a13.869,13.869,0,0,1-2.365-6.945c0-.251-.054-.5-.054-.754s.054-.6.054-.917a14.127,14.127,0,0,1,.272-1.862,14.562,14.562,0,0,1,2.242-5.056,17.668,17.668,0,0,1,1.08-1.413A18.365,18.365,0,0,1,15.112,10.328ZM53.287,45.1a42.809,42.809,0,0,1-13.835,3.309l3.513-3.058,3.343-2.9,3.364-2.929,8.46,2.609.435.129A35.089,35.089,0,0,1,53.287,45.1ZM34.655,58.472l-5.232-7.583a48.666,48.666,0,0,0,5.232.415ZM28.818,41.321a37.835,37.835,0,0,0,14.487,0l-1.427,1.237-3.336,2.9-2.48,2.161-2.338-2.039-3.146-2.772Zm30.17-1.855-5.565-1.733a26.677,26.677,0,0,0,5.348-3.866ZM7.515,23.491a16.26,16.26,0,0,0,.747,2.834L5.5,24.809Zm5.837,10.376A26.677,26.677,0,0,0,18.7,37.733l-5.565,1.733ZM37.475,51.3a49.433,49.433,0,0,0,5.273-.414l-5.273,7.624Zm26.4-24.979a16.261,16.261,0,0,0,.747-2.834l2.039,1.318ZM10.641,30.843l-.34,8.983c-4.186-3.656-6.9-8.215-7.373-13.2Zm51.194,8.983-.347-8.983,7.712-4.22C68.712,31.611,66.034,36.17,61.835,39.826ZM21.826,49.217c1.2.374,2.426.68,3.683.985L28.7,54.823Zm21.663,5.558,3.167-4.58c1.25-.279,2.467-.612,3.656-.985Z" fill="#a9bcbf"/>
  <path id="Path_75" data-name="Path 75" d="M46.632,27.111h0a1.235,1.235,0,0,0,1.359-.014h0l13.237-8.154,1.359-.815.082-.048.68-.428.177-.6.116-.387.17-.584-1.943-.822-.564.347-1.359.822-.387.238-.938.578-1.359.836-9.914,6.17L37.187,18.223l-1.937.856.51,1.57Z" transform="translate(-11.297 -4.891)" fill="#a9bcbf"/>
</svg>
